license GNU GPL 2, http://lifeware.inria.fr/biocham4/
fast*[x2]*[y] for x2+y=>x1+x2+y.
fast*[x1] for x1=>_.
MA(1) for x1=>x0+x1.
MA(1) for x0=>x0+y.
initial_state(x2= -1).
initial_state(y=1).
parameter(
  fast = 1000
).
<img src="ode.tex" alt="Simulation results">
<img src="plot-0.csv" alt="Simulation results">
<img src="plot-1.csv" alt="Simulation results">
MA(fast) for costime_m+costime_p=>_.
MA(fast) for A_m+A_p=>_.
initial_state(costime_p=1).
parameter(
  fast = 1000
).
No complex invariant found
<img src="ode.tex" alt="Simulation results">
<img src="plot-2.csv" alt="Simulation results">
<img src="plot-3.csv" alt="Simulation results">
<img src="plot-4.csv" alt="Simulation results">
<img src="plot-5.csv" alt="Simulation results">
<img src="plot-6.csv" alt="Simulation results">
MA(fast) for costime1_m+costime1_p=>_.
MA(fast) for C_m+C_p=>_.
MA(fast) for B_m+B_p=>_.
initial_state(costime1_p=2).
initial_state(C_p=1).
initial_state(A=1).
parameter(
  fast = 1000
).
<img src="plot-7.csv" alt="Simulation results">
<img src="plot-8.csv" alt="Simulation results">
MA(fast) for cosx_m+cosx_p=>_.
MA(fast) for A_m+A_p=>_.
initial_state(cosx_p=1).
initial_state(x=input).
parameter(
  fast = 1000,
  input = 4
).
<img src="graph0.png" alt="Simulation results">
<img src="graph1.png" alt="Simulation results">
<img src="ode.tex" alt="Simulation results">
<img src="plot-9.csv" alt="Simulation results">
MA(fast) for cosx_m+cosx_p=>_.
MA(fast) for A_m+A_p=>_.
MA(k_2) for A_p+x=>A_p+cosx_p+x.
MA(k_3) for A_m+x=>A_m+cosx_m+x.
MA(k_4) for cosx_m+x=>A_p+cosx_m+x.
MA(k_5) for cosx_p+x=>A_m+cosx_p+x.
MA(k_6) for x=>_.
initial_state(x=input).
initial_state(cosx_p=k_1).
parameter(
  fast = 1000,
  input = 4,
  k_1 = 1,
).
<img src="plot-10.csv" alt="Simulation results">
<img src="plot-11.csv" alt="Simulation results">
v=43
<img src="plot-12.csv" alt="Simulation results">
