license GNU GPL 2, http://lifeware.inria.fr/biocham4/
vi for _=>Cyclin.
kd*Cyclin for Cyclin=>_.
Kinase*V2/(K2+Kinase) for Kinase=>KinaseP.
VM1*KinaseP/(K1+KinaseP)*Cyclin/(Kc+Cyclin) for Cyclin+KinaseP=>Cyclin+Kinase.
Kinase*Protease*VM3/(K3+Protease) for Kinase+Protease=>Kinase+ProteaseP.
ProteaseP*V4/(K4+ProteaseP) for ProteaseP=>Protease.
vd*Cyclin/(Kd+Cyclin)*ProteaseP for Cyclin+ProteaseP=>ProteaseP.
parameter(
  VM1 = 3,
  VM3 = 1,
).
<img src="graph0.png" alt="Simulation results">
<img src="graph1.png" alt="Simulation results">
Kinase+KinaseP
Protease+ProteaseP
2 complex invariant(s)
<img src="ode.tex" alt="Simulation results">
<img src="plot-0.csv" alt="Simulation results">
<img src="plot-1.csv" alt="Simulation results">
<img src="plot-2.csv" alt="Simulation results">
reachable(steady(Cyclin))
reachable(steady(Kinase))
reachable(steady(KinaseP))
reachable(steady(Protease))
reachable(steady(ProteaseP))
oscil(Cyclin)
oscil(Kinase)
oscil(KinaseP)
oscil(Protease)
oscil(ProteaseP)
EF(s)
EG(s)
AG(s)
EU(not f,f/\EU(f,not f/\EU(not f,f/\EU(f,not f/\EU(not f,f)))))/\EG(EF(f)/\EF(not f))
removed:
kd*Cyclin for Cyclin=>_
<img src="plot-3.csv" alt="Simulation results">
<img src="plot-4.csv" alt="Simulation results">
exists(Minimum,exists(Maximum,G(x<=Maximum)/\F(x>=Maximum)/\(G(x>=Minimum)/\F(x<=Minimum))/\a=Maximum-Minimum))
[0] parameter(VM1=3)
[1] parameter(VM3=1)
<img src="plot-5.csv" alt="Simulation results">
<img src="plot-6.csv" alt="Simulation results">
F(x>m/\X(x<=m/\X(x>=m)))
<img src="plot-7.csv" alt="Simulation results">
<img src="plot-8.csv" alt="Simulation results">
MA(fast) for f_m+f_p=>_.
MA(fast) for A_m+A_p=>_.
initial_state(f_p=1).
parameter(
  fast = 1000
).
<img src="plot-9.csv" alt="Simulation results">
<img src="plot-10.csv" alt="Simulation results">
MA(fast) for f_m+f_p=>_.
MA(fast) for A_m+A_p=>_.
initial_state(f_p=1).
initial_state(x=input).
parameter(
  fast = 1000
).
<img src="plot-11.csv" alt="Simulation results">
<img src="plot-12.csv" alt="Simulation results">
<img src="plot-13.csv" alt="Simulation results">
